id;id_number;status
1;"851027 6429 283";Y
2;"2402291499159";N
3;"3602298584512";Y
4;"7602217492894";Y
5;"830730-6476-832";Y
6;"960229-2420-057";Y
7;"6802292676410";Y
8;"6402296901684";N
9;"560229 6830 277";Y
10;"4002295151827";Y
